[
    {
        "essential": true,
        "image": "amazon/amazon-ecs-sample",
        "memory": 100,
        "name": "example",
        "portMappings": [
            {
                "containerPort": 80,
                "hostPort": 80
            }
        ]
    }
]
